{

	 // Place your snippets for Markdown here. Each snippet is defined under a snippet name and has a prefix, body and 
	 // description. The prefix is what is used to trigger the snippet and the body will be expanded and inserted. Possible variables are:
	 // $1, $2 for tab stops, ${id} and ${id:label} and ${1:label} for variables. Variables with the same id are connected.
	 // Example:
	 "php": {
		"prefix": "php",
		"body": [
			"<?php $1; ?>"
		],
		"description": "Source code html"
	},

	"py": {
		"prefix": "python",
		"body": [
			"```python",
			"$1",
			"```"
		],
		"description": "Source code python"
	},

	 "code javascript": {
		"prefix": "js",
		"body": [
			"```javascript",
			"$1",
			"```"
		],
		"description": "Source code javascript"
	},
	
	"code elm": {
		"prefix": "elm",
		"body": [
			"```elm",
			"$1",
			"```"
		],
		"description": "Source code elm"
	},
	
	"code nim": {
		"prefix": "nim",
		"body": [
			"```nim",
			"$1",
			"```"
		],
		"description": "Source code nim"
	},

	"code html": {
		"prefix": "html",
		"body": [
			"```html",
			"$1",
			"```"
		],
		"description": "Source code html"
	}

}